<svg width="36" height="36" viewBox="0 0 36 36" fill="none" xmlns="http://www.w3.org/2000/svg">
<path d="M36 18C36 27.9411 27.9411 36 18 36C8.05887 36 0 27.9411 0 18C0 8.05887 8.05887 0 18 0C27.9411 0 36 8.05887 36 18Z" fill="#5D8DF3"/>
<path fill-rule="evenodd" clip-rule="evenodd" d="M24.3677 19.9025C24.9946 20.5139 25.6564 21.0891 26.2186 21.7621C26.467 22.0612 26.7022 22.3698 26.8821 22.7168C27.137 23.2102 26.9061 23.7532 26.4632 23.7826L23.7098 23.7814C22.9996 23.8402 22.4331 23.5547 21.9568 23.0697C21.5756 22.6819 21.2225 22.2692 20.856 21.8683C20.7057 21.7044 20.5484 21.5502 20.3605 21.4283C19.9846 21.1847 19.6584 21.2593 19.4436 21.6508C19.2248 22.0491 19.1752 22.49 19.1537 22.9339C19.1242 23.5814 18.9282 23.7517 18.2769 23.7813C16.8851 23.8469 15.5641 23.6366 14.337 22.9353C13.2552 22.3171 12.4162 21.4443 11.686 20.4562C10.2643 18.5322 9.17555 16.4181 8.19701 14.2447C7.97675 13.7551 8.13783 13.4922 8.67877 13.4829C9.57701 13.4655 10.4751 13.4667 11.3744 13.4817C11.7395 13.487 11.9812 13.6962 12.1221 14.0406C12.6081 15.2341 13.2028 16.3696 13.9492 17.4221C14.1479 17.7023 14.3506 17.9825 14.6393 18.1798C14.9586 18.3982 15.2017 18.3258 15.3519 17.9705C15.4472 17.7452 15.4889 17.5026 15.5104 17.2614C15.5816 16.4313 15.591 15.6027 15.4662 14.7756C15.3895 14.2594 15.0984 13.9252 14.5827 13.8275C14.3195 13.7777 14.3587 13.6799 14.4861 13.5299C14.7074 13.2711 14.9156 13.1101 15.3305 13.1101H17.8423C18.2413 13.1101 18.732 13.0603 18.9527 13.3928C19.0365 13.519 19.0768 13.6893 19.108 13.9188L19.1107 17.3711C19.1054 17.5617 19.206 18.1272 19.5497 18.2534C19.8248 18.3432 20.0062 18.1234 20.1712 17.9492C20.9163 17.1594 21.448 16.226 21.9231 15.2595C22.1339 14.8346 22.3151 14.3932 22.4908 13.9523C22.621 13.625 22.8252 13.464 23.1942 13.4711L26.1892 13.4738C26.278 13.4738 26.3678 13.4751 26.4538 13.4898C26.9585 13.5757 27.0968 13.7925 26.9409 14.2847C26.6953 15.057 26.2175 15.7005 25.7502 16.347C25.2508 17.0373 24.7166 17.7039 24.2213 18.3982C23.7663 19.0323 23.8024 19.3519 24.3677 19.9025Z" fill="white"/>
</svg>
