<svg width="6" height="10" viewBox="0 0 6 10" fill="none" xmlns="http://www.w3.org/2000/svg">
<path d="M0.215872 5.49505L4.74173 9.79476C5.02962 10.0684 5.4964 10.0684 5.78416 9.79476C6.07195 9.52135 6.07195 9.0779 5.78416 8.80451L1.77948 4.99993L5.78405 1.19548C6.07183 0.921955 6.07183 0.478552 5.78405 0.205141C5.49626 -0.0683805 5.02951 -0.0683805 4.74161 0.205141L0.215755 4.50492C0.0718641 4.64169 0 4.82075 0 4.99991C0 5.17915 0.0720043 5.35835 0.215872 5.49505Z" fill="#6A6A6A"/>
</svg>
