<svg width="42" height="37.33" viewBox="0 0 46 42" fill="none" xmlns="http://www.w3.org/2000/svg">
<path d="M2 14.0002C2 12.7625 2.49167 11.5755 3.36683 10.7003C4.242 9.82516 5.42899 9.3335 6.66667 9.3335H8.83667C9.60476 9.33361 10.361 9.14413 11.0383 8.78187C11.7156 8.41961 12.293 7.89577 12.7193 7.25683L14.614 4.41016C15.0403 3.77122 15.6177 3.24738 16.295 2.88512C16.9723 2.52286 17.7286 2.33338 18.4967 2.3335H27.5033C28.2714 2.33338 29.0277 2.52286 29.705 2.88512C30.3823 3.24738 30.9597 3.77122 31.386 4.41016L33.2807 7.25683C33.707 7.89577 34.2844 8.41961 34.9617 8.78187C35.639 9.14413 36.3952 9.33361 37.1633 9.3335H39.3333C40.571 9.3335 41.758 9.82516 42.6332 10.7003C43.5083 11.5755 44 12.7625 44 14.0002V35.0002C44 36.2378 43.5083 37.4248 42.6332 38.3C41.758 39.1752 40.571 39.6668 39.3333 39.6668H6.66667C5.42899 39.6668 4.242 39.1752 3.36683 38.3C2.49167 37.4248 2 36.2378 2 35.0002V14.0002Z" stroke="#35B34A" stroke-width="3.7" stroke-linecap="round" stroke-linejoin="round"/>
<path d="M30 23.3335C30 25.19 29.2625 26.9705 27.9497 28.2832C26.637 29.596 24.8565 30.3335 23 30.3335C21.1435 30.3335 19.363 29.596 18.0503 28.2832C16.7375 26.9705 16 25.19 16 23.3335C16 21.477 16.7375 19.6965 18.0503 18.3837C19.363 17.071 21.1435 16.3335 23 16.3335C24.8565 16.3335 26.637 17.071 27.9497 18.3837C29.2625 19.6965 30 21.477 30 23.3335V23.3335Z" stroke="#35B34A" stroke-width="3.7" stroke-linecap="round" stroke-linejoin="round"/>
</svg>
