<svg width="13" height="11" viewBox="0 0 13 11" fill="none" xmlns="http://www.w3.org/2000/svg">
<path d="M9.37849 10.2142C10.3394 10.213 11.2605 9.79349 11.9395 9.04787C12.6186 8.30225 13 7.29147 13 6.23763C13 5.18379 12.6186 4.17305 11.9395 3.42743C11.2605 2.68181 10.3394 2.26231 9.37849 2.26105H3.73886V0L0 3.06548L3.73886 6.13096V3.86991H9.37849C9.95106 3.86991 10.5002 4.11938 10.905 4.56342C11.3099 5.00745 11.5373 5.60971 11.5373 6.23767C11.5373 6.86563 11.3099 7.46785 10.905 7.91188C10.5002 8.35592 9.95106 8.60539 9.37849 8.60539H2.85059C2.65639 8.60595 2.47033 8.69095 2.3332 8.84175C2.19606 8.99255 2.11905 9.19684 2.11905 9.40982C2.11905 9.6228 2.19606 9.82708 2.3332 9.97788C2.47033 10.1287 2.65639 10.2137 2.85059 10.2143L9.37849 10.2142Z" fill="#4B4B4B"/>
</svg>
