<svg width="20" height="16" viewBox="0 0 20 16" fill="none" xmlns="http://www.w3.org/2000/svg">
<path d="M1 4L8.89 9.26C9.21866 9.47928 9.6049 9.5963 10 9.5963C10.3951 9.5963 10.7813 9.47928 11.11 9.26L19 4M3 15H17C17.5304 15 18.0391 14.7893 18.4142 14.4142C18.7893 14.0391 19 13.5304 19 13V3C19 2.46957 18.7893 1.96086 18.4142 1.58579C18.0391 1.21071 17.5304 1 17 1H3C2.46957 1 1.96086 1.21071 1.58579 1.58579C1.21071 1.96086 1 2.46957 1 3V13C1 13.5304 1.21071 14.0391 1.58579 14.4142C1.96086 14.7893 2.46957 15 3 15Z" stroke="#35B34A" stroke-width="2" stroke-linecap="round" stroke-linejoin="round"/>
</svg>
